%YAML 1.1
%TAG !u! tag:unity3d.com,2011:
--- !u!1045 &1
EditorBuildSettings:
  m_ObjectHideFlags: 0
  serializedVersion: 2
  m_Scenes:
  - enabled: 1
    path: Assets/Scenes/Loading.unity
    guid: fb12d15336ff18248bea4d9b09cac59b
  - enabled: 1
    path: Assets/Scenes/Lobby.unity
    guid: 6df737447bec6b541b5291419aee96c2
  - enabled: 1
    path: Assets/Scenes/SampleScene.unity
    guid: 9fc0d4010bbf28b4594072e72b8655ab
  - enabled: 1
    path: Assets/Scenes/WaitingLobby.unity
    guid: a8f2a928e4c1efe42ac87ea97b3dae88
  - enabled: 1
    path: Assets/Scenes/EndGame.unity
    guid: a35c1a1a5f9332f438dadec861ad124c
  m_configObjects: {}
