%YAML 1.1
%TAG !u! tag:unity3d.com,2011:
--- !u!29 &1
OcclusionCullingSettings:
  m_ObjectHideFlags: 0
  serializedVersion: 2
  m_OcclusionBakeSettings:
    smallestOccluder: 5
    smallestHole: 0.25
    backfaceThreshold: 100
  m_SceneGUID: 00000000000000000000000000000000
  m_OcclusionCullingData: {fileID: 0}
--- !u!104 &2
RenderSettings:
  m_ObjectHideFlags: 0
  serializedVersion: 9
  m_Fog: 0
  m_FogColor: {r: 0.5, g: 0.5, b: 0.5, a: 1}
  m_FogMode: 3
  m_FogDensity: 0.01
  m_LinearFogStart: 0
  m_LinearFogEnd: 300
  m_AmbientSkyColor: {r: 0.72794116, g: 0.72794116, b: 0.72794116, a: 1}
  m_AmbientEquatorColor: {r: 0.114, g: 0.125, b: 0.133, a: 1}
  m_AmbientGroundColor: {r: 0.047, g: 0.043, b: 0.035, a: 1}
  m_AmbientIntensity: 1
  m_AmbientMode: 0
  m_SubtractiveShadowColor: {r: 0.42, g: 0.478, b: 0.627, a: 1}
  m_SkyboxMaterial: {fileID: 0}
  m_HaloStrength: 0.5
  m_FlareStrength: 1
  m_FlareFadeSpeed: 3
  m_HaloTexture: {fileID: 0}
  m_SpotCookie: {fileID: 10001, guid: 0000000000000000e000000000000000, type: 0}
  m_DefaultReflectionMode: 0
  m_DefaultReflectionResolution: 128
  m_ReflectionBounces: 1
  m_ReflectionIntensity: 1
  m_CustomReflection: {fileID: 0}
  m_Sun: {fileID: 0}
  m_IndirectSpecularColor: {r: 0, g: 0, b: 0, a: 1}
  m_UseRadianceAmbientProbe: 0
--- !u!157 &3
LightmapSettings:
  m_ObjectHideFlags: 0
  serializedVersion: 11
  m_GIWorkflowMode: 1
  m_GISettings:
    serializedVersion: 2
    m_BounceScale: 1
    m_IndirectOutputScale: 0.5
    m_AlbedoBoost: 1
    m_EnvironmentLightingMode: 0
    m_EnableBakedLightmaps: 1
    m_EnableRealtimeLightmaps: 1
  m_LightmapEditorSettings:
    serializedVersion: 12
    m_Resolution: 2
    m_BakeResolution: 40
    m_AtlasSize: 1024
    m_AO: 0
    m_AOMaxDistance: 1
    m_CompAOExponent: 1
    m_CompAOExponentDirect: 0
    m_ExtractAmbientOcclusion: 0
    m_Padding: 2
    m_LightmapParameters: {fileID: 0}
    m_LightmapsBakeMode: 1
    m_TextureCompression: 1
    m_FinalGather: 0
    m_FinalGatherFiltering: 1
    m_FinalGatherRayCount: 256
    m_ReflectionCompression: 2
    m_MixedBakeMode: 2
    m_BakeBackend: 0
    m_PVRSampling: 1
    m_PVRDirectSampleCount: 32
    m_PVRSampleCount: 500
    m_PVRBounces: 2
    m_PVREnvironmentSampleCount: 500
    m_PVREnvironmentReferencePointCount: 2048
    m_PVRFilteringMode: 0
    m_PVRDenoiserTypeDirect: 0
    m_PVRDenoiserTypeIndirect: 0
    m_PVRDenoiserTypeAO: 0
    m_PVRFilterTypeDirect: 0
    m_PVRFilterTypeIndirect: 0
    m_PVRFilterTypeAO: 0
    m_PVREnvironmentMIS: 0
    m_PVRCulling: 1
    m_PVRFilteringGaussRadiusDirect: 1
    m_PVRFilteringGaussRadiusIndirect: 5
    m_PVRFilteringGaussRadiusAO: 2
    m_PVRFilteringAtrousPositionSigmaDirect: 0.5
    m_PVRFilteringAtrousPositionSigmaIndirect: 2
    m_PVRFilteringAtrousPositionSigmaAO: 1
    m_ExportTrainingData: 0
    m_TrainingDataDestination: TrainingData
    m_LightProbeSampleCountMultiplier: 4
  m_LightingDataAsset: {fileID: 112000000, guid: 7135c5a54202ee143a7cff708db542e5,
    type: 2}
  m_UseShadowmask: 1
--- !u!196 &4
NavMeshSettings:
  serializedVersion: 2
  m_ObjectHideFlags: 0
  m_BuildSettings:
    serializedVersion: 2
    agentTypeID: 0
    agentRadius: 0.5
    agentHeight: 2
    agentSlope: 45
    agentClimb: 0.4
    ledgeDropHeight: 0
    maxJumpAcrossDistance: 0
    minRegionArea: 2
    manualCellSize: 0
    cellSize: 0.16666667
    manualTileSize: 0
    tileSize: 256
    accuratePlacement: 0
    debug:
      m_Flags: 0
  m_NavMeshData: {fileID: 0}
--- !u!1 &327574809
GameObject:
  m_ObjectHideFlags: 0
  m_CorrespondingSourceObject: {fileID: 0}
  m_PrefabInstance: {fileID: 0}
  m_PrefabAsset: {fileID: 0}
  serializedVersion: 6
  m_Component:
  - component: {fileID: 327574815}
  - component: {fileID: 327574814}
  - component: {fileID: 327574812}
  - component: {fileID: 327574811}
  - component: {fileID: 327574810}
  - component: {fileID: 327574817}
  m_Layer: 0
  m_Name: Main Camera
  m_TagString: MainCamera
  m_Icon: {fileID: 0}
  m_NavMeshLayer: 0
  m_StaticEditorFlags: 0
  m_IsActive: 1
--- !u!114 &327574810
MonoBehaviour:
  m_ObjectHideFlags: 0
  m_CorrespondingSourceObject: {fileID: 0}
  m_PrefabInstance: {fileID: 0}
  m_PrefabAsset: {fileID: 0}
  m_GameObject: {fileID: 327574809}
  m_Enabled: 1
  m_EditorHideFlags: 0
  m_Script: {fileID: 11500000, guid: 50aaf516758b40a1a94bb7d7333bb963, type: 3}
  m_Name: 
  m_EditorClassIdentifier: 
  focus: {x: 0, y: 0, z: 0}
  focusObj: {fileID: 0}
  showInstWindow: 0
--- !u!81 &327574811
AudioListener:
  m_ObjectHideFlags: 0
  m_CorrespondingSourceObject: {fileID: 0}
  m_PrefabInstance: {fileID: 0}
  m_PrefabAsset: {fileID: 0}
  m_GameObject: {fileID: 327574809}
  m_Enabled: 1
--- !u!124 &327574812
Behaviour:
  m_ObjectHideFlags: 0
  m_CorrespondingSourceObject: {fileID: 0}
  m_PrefabInstance: {fileID: 0}
  m_PrefabAsset: {fileID: 0}
  m_GameObject: {fileID: 327574809}
  m_Enabled: 1
--- !u!20 &327574814
Camera:
  m_ObjectHideFlags: 0
  m_CorrespondingSourceObject: {fileID: 0}
  m_PrefabInstance: {fileID: 0}
  m_PrefabAsset: {fileID: 0}
  m_GameObject: {fileID: 327574809}
  m_Enabled: 1
  serializedVersion: 2
  m_ClearFlags: 1
  m_BackGroundColor: {r: 0.19215687, g: 0.3019608, b: 0.4745098, a: 0}
  m_projectionMatrixMode: 1
  m_GateFitMode: 2
  m_FOVAxisMode: 0
  m_SensorSize: {x: 36, y: 24}
  m_LensShift: {x: 0, y: 0}
  m_FocalLength: 50
  m_NormalizedViewPortRect:
    serializedVersion: 2
    x: 0
    y: 0
    width: 1
    height: 1
  near clip plane: 0.3
  far clip plane: 1000
  field of view: 30
  orthographic: 0
  orthographic size: 5
  m_Depth: -1
  m_CullingMask:
    serializedVersion: 2
    m_Bits: 4294967295
  m_RenderingPath: -1
  m_TargetTexture: {fileID: 0}
  m_TargetDisplay: 0
  m_TargetEye: 3
  m_HDR: 0
  m_AllowMSAA: 0
  m_AllowDynamicResolution: 0
  m_ForceIntoRT: 0
  m_OcclusionCulling: 1
  m_StereoConvergence: 10
  m_StereoSeparation: 0.022
--- !u!4 &327574815
Transform:
  m_ObjectHideFlags: 0
  m_CorrespondingSourceObject: {fileID: 0}
  m_PrefabInstance: {fileID: 0}
  m_PrefabAsset: {fileID: 0}
  m_GameObject: {fileID: 327574809}
  m_LocalRotation: {x: 0.25724632, y: -0.33336872, z: 0.09506708, w: 0.9020266}
  m_LocalPosition: {x: 2.028, y: 2.494, z: -2.389}
  m_LocalScale: {x: 1, y: 1, z: 1}
  m_Children: []
  m_Father: {fileID: 0}
  m_RootOrder: 0
  m_LocalEulerAnglesHint: {x: 36.771, y: 0, z: 0}
--- !u!114 &327574817
MonoBehaviour:
  m_ObjectHideFlags: 0
  m_CorrespondingSourceObject: {fileID: 0}
  m_PrefabInstance: {fileID: 0}
  m_PrefabAsset: {fileID: 0}
  m_GameObject: {fileID: 327574809}
  m_Enabled: 1
  m_EditorHideFlags: 0
  m_Script: {fileID: 11500000, guid: 23c1ce4fb46143f46bc5cb5224c934f6, type: 3}
  m_Name: 
  m_EditorClassIdentifier: 
  m_Version: 7
  m_ObsoleteRenderingPath: 0
  m_ObsoleteFrameSettings:
    overrides: 0
    enableShadow: 0
    enableContactShadows: 0
    enableShadowMask: 0
    enableSSR: 0
    enableSSAO: 0
    enableSubsurfaceScattering: 0
    enableTransmission: 0
    enableAtmosphericScattering: 0
    enableVolumetrics: 0
    enableReprojectionForVolumetrics: 0
    enableLightLayers: 0
    enableExposureControl: 1
    diffuseGlobalDimmer: 0
    specularGlobalDimmer: 0
    shaderLitMode: 0
    enableDepthPrepassWithDeferredRendering: 0
    enableTransparentPrepass: 0
    enableMotionVectors: 0
    enableObjectMotionVectors: 0
    enableDecals: 0
    enableRoughRefraction: 0
    enableTransparentPostpass: 0
    enableDistortion: 0
    enablePostprocess: 0
    enableOpaqueObjects: 0
    enableTransparentObjects: 0
    enableRealtimePlanarReflection: 0
    enableMSAA: 0
    enableAsyncCompute: 0
    runLightListAsync: 0
    runSSRAsync: 0
    runSSAOAsync: 0
    runContactShadowsAsync: 0
    runVolumeVoxelizationAsync: 0
    lightLoopSettings:
      overrides: 0
      enableDeferredTileAndCluster: 0
      enableComputeLightEvaluation: 0
      enableComputeLightVariants: 0
      enableComputeMaterialVariants: 0
      enableFptlForForwardOpaque: 0
      enableBigTilePrepass: 0
      isFptlEnabled: 0
  clearColorMode: 0
  backgroundColorHDR: {r: 0.025, g: 0.07, b: 0.19, a: 0}
  clearDepth: 1
  volumeLayerMask:
    serializedVersion: 2
    m_Bits: 1
  volumeAnchorOverride: {fileID: 0}
  antialiasing: 0
  SMAAQuality: 2
  dithering: 0
  stopNaNs: 0
  taaSharpenStrength: 0.6
  physicalParameters:
    m_Iso: 200
    m_ShutterSpeed: 0.005
    m_Aperture: 16
    m_BladeCount: 5
    m_Curvature: {x: 2, y: 11}
    m_BarrelClipping: 0.25
    m_Anamorphism: 0
  flipYMode: 0
  fullscreenPassthrough: 0
  allowDynamicResolution: 0
  customRenderingSettings: 0
  invertFaceCulling: 0
  probeLayerMask:
    serializedVersion: 2
    m_Bits: 4294967295
  hasPersistentHistory: 0
  m_RenderingPathCustomFrameSettings:
    bitDatas:
      data1: 70297877217101
      data2: 4539628425463136256
    lodBias: 1
    lodBiasMode: 0
    lodBiasQualityLevel: 0
    maximumLODLevel: 0
    maximumLODLevelMode: 0
    maximumLODLevelQualityLevel: 0
    materialQuality: 0
  renderingPathCustomFrameSettingsOverrideMask:
    mask:
      data1: 0
      data2: 0
  defaultFrameSettings: 0
--- !u!1 &769384943
GameObject:
  m_ObjectHideFlags: 0
  m_CorrespondingSourceObject: {fileID: 0}
  m_PrefabInstance: {fileID: 0}
  m_PrefabAsset: {fileID: 0}
  serializedVersion: 6
  m_Component:
  - component: {fileID: 769384946}
  - component: {fileID: 769384945}
  - component: {fileID: 769384944}
  m_Layer: 0
  m_Name: Reflection Probe
  m_TagString: Untagged
  m_Icon: {fileID: 0}
  m_NavMeshLayer: 0
  m_StaticEditorFlags: 0
  m_IsActive: 1
--- !u!114 &769384944
MonoBehaviour:
  m_ObjectHideFlags: 0
  m_CorrespondingSourceObject: {fileID: 0}
  m_PrefabInstance: {fileID: 0}
  m_PrefabAsset: {fileID: 0}
  m_GameObject: {fileID: 769384943}
  m_Enabled: 1
  m_EditorHideFlags: 0
  m_Script: {fileID: 11500000, guid: d0ef8dc2c2eabfa4e8cb77be57a837c0, type: 3}
  m_Name: 
  m_EditorClassIdentifier: 
  m_HDProbeVersion: 3
  m_ObsoleteInfiniteProjection: 1
  m_ObsoleteInfluenceVolume:
    m_EditorAdvancedModeBlendDistancePositive: {x: 0, y: 0, z: 0}
    m_EditorAdvancedModeBlendDistanceNegative: {x: 0, y: 0, z: 0}
    m_EditorSimplifiedModeBlendDistance: 0
    m_EditorAdvancedModeBlendNormalDistancePositive: {x: 0, y: 0, z: 0}
    m_EditorAdvancedModeBlendNormalDistanceNegative: {x: 0, y: 0, z: 0}
    m_EditorSimplifiedModeBlendNormalDistance: 0
    m_EditorAdvancedModeEnabled: 0
    m_EditorAdvancedModeFaceFadePositive: {x: 1, y: 1, z: 1}
    m_EditorAdvancedModeFaceFadeNegative: {x: 1, y: 1, z: 1}
    m_Version: 1
    m_ObsoleteSphereBaseOffset: {x: 0, y: 0, z: 0}
    m_ObsoleteOffset: {x: 0, y: 0, z: 0}
    m_Shape: 0
    m_BoxSize: {x: 10, y: 10, z: 10}
    m_BoxBlendDistancePositive: {x: 1, y: 1, z: 1}
    m_BoxBlendDistanceNegative: {x: 1, y: 1, z: 1}
    m_BoxBlendNormalDistancePositive: {x: 0, y: 0, z: 0}
    m_BoxBlendNormalDistanceNegative: {x: 0, y: 0, z: 0}
    m_BoxSideFadePositive: {x: 1, y: 1, z: 1}
    m_BoxSideFadeNegative: {x: 1, y: 1, z: 1}
    m_SphereRadius: 3
    m_SphereBlendDistance: 0
    m_SphereBlendNormalDistance: 0
  m_ObsoleteFrameSettings:
    overrides: 0
    enableShadow: 0
    enableContactShadows: 0
    enableShadowMask: 0
    enableSSR: 0
    enableSSAO: 0
    enableSubsurfaceScattering: 0
    enableTransmission: 0
    enableAtmosphericScattering: 0
    enableVolumetrics: 0
    enableReprojectionForVolumetrics: 0
    enableLightLayers: 0
    enableExposureControl: 1
    diffuseGlobalDimmer: 0
    specularGlobalDimmer: 0
    shaderLitMode: 0
    enableDepthPrepassWithDeferredRendering: 0
    enableTransparentPrepass: 0
    enableMotionVectors: 0
    enableObjectMotionVectors: 0
    enableDecals: 0
    enableRoughRefraction: 0
    enableTransparentPostpass: 0
    enableDistortion: 0
    enablePostprocess: 0
    enableOpaqueObjects: 0
    enableTransparentObjects: 0
    enableRealtimePlanarReflection: 0
    enableMSAA: 0
    enableAsyncCompute: 0
    runLightListAsync: 0
    runSSRAsync: 0
    runSSAOAsync: 0
    runContactShadowsAsync: 0
    runVolumeVoxelizationAsync: 0
    lightLoopSettings:
      overrides: 0
      enableDeferredTileAndCluster: 0
      enableComputeLightEvaluation: 0
      enableComputeLightVariants: 0
      enableComputeMaterialVariants: 0
      enableFptlForForwardOpaque: 0
      enableBigTilePrepass: 0
      isFptlEnabled: 0
  m_ObsoleteMultiplier: 1
  m_ObsoleteWeight: 1
  m_ObsoleteMode: 0
  m_ObsoleteLightLayers: 1
  m_ObsoleteCaptureSettings:
    overrides: 0
    clearColorMode: 0
    backgroundColorHDR: {r: 0.023529412, g: 0.07058824, b: 0.1882353, a: 0}
    clearDepth: 1
    cullingMask:
      serializedVersion: 2
      m_Bits: 4294967295
    useOcclusionCulling: 1
    volumeLayerMask:
      serializedVersion: 2
      m_Bits: 1
    volumeAnchorOverride: {fileID: 0}
    projection: 0
    nearClipPlane: 0.3
    farClipPlane: 1000
    fieldOfView: 90
    orthographicSize: 5
    renderingPath: 0
    shadowDistance: 100
  m_ProbeSettings:
    frustum:
      fieldOfViewMode: 1
      fixedValue: 90
      automaticScale: 1
      viewerScale: 1
    type: 0
    mode: 0
    realtimeMode: 1
    lighting:
      multiplier: 1
      weight: 1
      lightLayer: 1
      fadeDistance: 10000
      rangeCompressionFactor: 1
    influence:
      m_EditorAdvancedModeBlendDistancePositive: {x: 1, y: 1, z: 1}
      m_EditorAdvancedModeBlendDistanceNegative: {x: 1, y: 1, z: 1}
      m_EditorSimplifiedModeBlendDistance: 0
      m_EditorAdvancedModeBlendNormalDistancePositive: {x: 0, y: 0, z: 0}
      m_EditorAdvancedModeBlendNormalDistanceNegative: {x: 0, y: 0, z: 0}
      m_EditorSimplifiedModeBlendNormalDistance: 0
      m_EditorAdvancedModeEnabled: 0
      m_EditorAdvancedModeFaceFadePositive: {x: 1, y: 1, z: 1}
      m_EditorAdvancedModeFaceFadeNegative: {x: 1, y: 1, z: 1}
      m_Version: 1
      m_ObsoleteSphereBaseOffset: {x: 0, y: 0, z: 0}
      m_ObsoleteOffset: {x: 0, y: 0, z: 0}
      m_Shape: 0
      m_BoxSize: {x: 5, y: 5, z: 5}
      m_BoxBlendDistancePositive: {x: 0, y: 0, z: 0}
      m_BoxBlendDistanceNegative: {x: 0, y: 0, z: 0}
      m_BoxBlendNormalDistancePositive: {x: 0, y: 0, z: 0}
      m_BoxBlendNormalDistanceNegative: {x: 0, y: 0, z: 0}
      m_BoxSideFadePositive: {x: 1, y: 1, z: 1}
      m_BoxSideFadeNegative: {x: 1, y: 1, z: 1}
      m_SphereRadius: 3
      m_SphereBlendDistance: 0
      m_SphereBlendNormalDistance: 0
    proxy:
      m_CSVersion: 1
      m_ObsoleteSphereInfiniteProjection: 0
      m_ObsoleteBoxInfiniteProjection: 0
      m_Shape: 0
      m_BoxSize: {x: 1, y: 1, z: 1}
      m_SphereRadius: 1
    proxySettings:
      useInfluenceVolumeAsProxyVolume: 0
      capturePositionProxySpace: {x: 0, y: 0, z: 0}
      captureRotationProxySpace: {x: 0, y: 0, z: 0, w: 1}
      mirrorPositionProxySpace: {x: 0, y: 0, z: 0}
      mirrorRotationProxySpace: {x: 0, y: 0, z: 0, w: 0}
    resolution: 512
    cameraSettings:
      customRenderingSettings: 0
      renderingPathCustomFrameSettings:
        bitDatas:
          data1: 70297877217101
          data2: 4539628425463136256
        lodBias: 1
        lodBiasMode: 0
        lodBiasQualityLevel: 0
        maximumLODLevel: 0
        maximumLODLevelMode: 0
        maximumLODLevelQualityLevel: 0
        materialQuality: 0
      renderingPathCustomFrameSettingsOverrideMask:
        mask:
          data1: 0
          data2: 0
      bufferClearing:
        clearColorMode: 1
        backgroundColorHDR: {r: 2.9960785, g: 2.9960785, b: 2.9960785, a: 0}
        clearDepth: 1
      volumes:
        layerMask:
          serializedVersion: 2
          m_Bits: 1
        anchorOverride: {fileID: 0}
      frustum:
        mode: 0
        aspect: 1
        farClipPlaneRaw: 1000
        nearClipPlaneRaw: 0.3
        fieldOfView: 90
        projectionMatrix:
          e00: 1
          e01: 0
          e02: 0
          e03: 0
          e10: 0
          e11: 1
          e12: 0
          e13: 0
          e20: 0
          e21: 0
          e22: 1
          e23: 0
          e30: 0
          e31: 0
          e32: 0
          e33: 1
      culling:
        useOcclusionCulling: 1
        cullingMask:
          serializedVersion: 2
          m_Bits: 4294967295
        sceneCullingMaskOverride: 0
      invertFaceCulling: 0
      flipYMode: 0
      probeLayerMask:
        serializedVersion: 2
        m_Bits: 4294967295
      defaultFrameSettings: 0
      m_ObsoleteRenderingPath: 0
      m_ObsoleteFrameSettings:
        overrides: 0
        enableShadow: 0
        enableContactShadows: 0
        enableShadowMask: 0
        enableSSR: 0
        enableSSAO: 0
        enableSubsurfaceScattering: 0
        enableTransmission: 0
        enableAtmosphericScattering: 0
        enableVolumetrics: 0
        enableReprojectionForVolumetrics: 0
        enableLightLayers: 0
        enableExposureControl: 1
        diffuseGlobalDimmer: 0
        specularGlobalDimmer: 0
        shaderLitMode: 0
        enableDepthPrepassWithDeferredRendering: 0
        enableTransparentPrepass: 0
        enableMotionVectors: 0
        enableObjectMotionVectors: 0
        enableDecals: 0
        enableRoughRefraction: 0
        enableTransparentPostpass: 0
        enableDistortion: 0
        enablePostprocess: 0
        enableOpaqueObjects: 0
        enableTransparentObjects: 0
        enableRealtimePlanarReflection: 0
        enableMSAA: 0
        enableAsyncCompute: 0
        runLightListAsync: 0
        runSSRAsync: 0
        runSSAOAsync: 0
        runContactShadowsAsync: 0
        runVolumeVoxelizationAsync: 0
        lightLoopSettings:
          overrides: 0
          enableDeferredTileAndCluster: 0
          enableComputeLightEvaluation: 0
          enableComputeLightVariants: 0
          enableComputeMaterialVariants: 0
          enableFptlForForwardOpaque: 0
          enableBigTilePrepass: 0
          isFptlEnabled: 0
  m_ProbeSettingsOverride:
    probe: 0
    camera:
      camera: 0
  m_ProxyVolume: {fileID: 0}
  m_BakedTexture: {fileID: 8900000, guid: 46b9a30089d59ba42a4f1278b913cfff, type: 3}
  m_CustomTexture: {fileID: 0}
  m_BakedRenderData:
    m_WorldToCameraRHS:
      e00: 0
      e01: 0
      e02: 0
      e03: 0
      e10: 0
      e11: 0
      e12: 0
      e13: 0
      e20: 0
      e21: 0
      e22: 0
      e23: 0
      e30: 0
      e31: 0
      e32: 0
      e33: 0
    m_ProjectionMatrix:
      e00: 0
      e01: 0
      e02: 0
      e03: 0
      e10: 0
      e11: 0
      e12: 0
      e13: 0
      e20: 0
      e21: 0
      e22: 0
      e23: 0
      e30: 0
      e31: 0
      e32: 0
      e33: 0
    m_CapturePosition: {x: 0, y: 0, z: 0}
    m_CaptureRotation: {x: 0, y: 0, z: 0, w: 0}
    m_FieldOfView: 0
    m_Aspect: 0
  m_CustomRenderData:
    m_WorldToCameraRHS:
      e00: 0
      e01: 0
      e02: 0
      e03: 0
      e10: 0
      e11: 0
      e12: 0
      e13: 0
      e20: 0
      e21: 0
      e22: 0
      e23: 0
      e30: 0
      e31: 0
      e32: 0
      e33: 0
    m_ProjectionMatrix:
      e00: 0
      e01: 0
      e02: 0
      e03: 0
      e10: 0
      e11: 0
      e12: 0
      e13: 0
      e20: 0
      e21: 0
      e22: 0
      e23: 0
      e30: 0
      e31: 0
      e32: 0
      e33: 0
    m_CapturePosition: {x: 0, y: 0, z: 0}
    m_CaptureRotation: {x: 0, y: 0, z: 0, w: 0}
    m_FieldOfView: 0
    m_Aspect: 0
  m_EditorOnlyData: 0
  m_ReflectionProbeVersion: 9
  m_ObsoleteInfluenceShape: 0
  m_ObsoleteInfluenceSphereRadius: 3
  m_ObsoleteBlendDistancePositive: {x: 1, y: 1, z: 1}
  m_ObsoleteBlendDistanceNegative: {x: 1, y: 1, z: 1}
  m_ObsoleteBlendNormalDistancePositive: {x: 0, y: 0, z: 0}
  m_ObsoleteBlendNormalDistanceNegative: {x: 0, y: 0, z: 0}
  m_ObsoleteBoxSideFadePositive: {x: 1, y: 1, z: 1}
  m_ObsoleteBoxSideFadeNegative: {x: 1, y: 1, z: 1}
--- !u!215 &769384945
ReflectionProbe:
  m_ObjectHideFlags: 0
  m_CorrespondingSourceObject: {fileID: 0}
  m_PrefabInstance: {fileID: 0}
  m_PrefabAsset: {fileID: 0}
  m_GameObject: {fileID: 769384943}
  m_Enabled: 1
  serializedVersion: 2
  m_Type: 0
  m_Mode: 2
  m_RefreshMode: 2
  m_TimeSlicingMode: 0
  m_Resolution: 128
  m_UpdateFrequency: 0
  m_BoxSize: {x: 5, y: 5, z: 5}
  m_BoxOffset: {x: 0, y: 0, z: 0}
  m_NearClip: 0.3
  m_FarClip: 1000
  m_ShadowDistance: 100
  m_ClearFlags: 1
  m_BackGroundColor: {r: 0.19215687, g: 0.3019608, b: 0.4745098, a: 0}
  m_CullingMask:
    serializedVersion: 2
    m_Bits: 4294967295
  m_IntensityMultiplier: 1
  m_BlendDistance: 0
  m_HDR: 1
  m_BoxProjection: 0
  m_RenderDynamicObjects: 0
  m_UseOcclusionCulling: 1
  m_Importance: 1
  m_CustomBakedTexture: {fileID: 0}
--- !u!4 &769384946
Transform:
  m_ObjectHideFlags: 0
  m_CorrespondingSourceObject: {fileID: 0}
  m_PrefabInstance: {fileID: 0}
  m_PrefabAsset: {fileID: 0}
  m_GameObject: {fileID: 769384943}
  m_LocalRotation: {x: 0, y: 0, z: 0, w: 1}
  m_LocalPosition: {x: 0, y: 2.5, z: 0}
  m_LocalScale: {x: 1, y: 1, z: 1}
  m_Children: []
  m_Father: {fileID: 0}
  m_RootOrder: 8
  m_LocalEulerAnglesHint: {x: 0, y: 0, z: 0}
--- !u!1 &989981970
GameObject:
  m_ObjectHideFlags: 1
  m_CorrespondingSourceObject: {fileID: 0}
  m_PrefabInstance: {fileID: 0}
  m_PrefabAsset: {fileID: 0}
  serializedVersion: 6
  m_Component:
  - component: {fileID: 989981972}
  - component: {fileID: 989981971}
  m_Layer: 0
  m_Name: StaticLightingSky
  m_TagString: Untagged
  m_Icon: {fileID: 0}
  m_NavMeshLayer: 0
  m_StaticEditorFlags: 0
  m_IsActive: 1
--- !u!114 &989981971
MonoBehaviour:
  m_ObjectHideFlags: 1
  m_CorrespondingSourceObject: {fileID: 0}
  m_PrefabInstance: {fileID: 0}
  m_PrefabAsset: {fileID: 0}
  m_GameObject: {fileID: 989981970}
  m_Enabled: 1
  m_EditorHideFlags: 0
  m_Script: {fileID: 11500000, guid: 441482e8936e35048a1dffac814e3ef8, type: 3}
  m_Name: 
  m_EditorClassIdentifier: 
  m_Profile: {fileID: 0}
  m_StaticLightingSkyUniqueID: 0
--- !u!4 &989981972
Transform:
  m_ObjectHideFlags: 1
  m_CorrespondingSourceObject: {fileID: 0}
  m_PrefabInstance: {fileID: 0}
  m_PrefabAsset: {fileID: 0}
  m_GameObject: {fileID: 989981970}
  m_LocalRotation: {x: 0, y: 0, z: 0, w: 1}
  m_LocalPosition: {x: 0, y: 0, z: 0}
  m_LocalScale: {x: 1, y: 1, z: 1}
  m_Children: []
  m_Father: {fileID: 0}
  m_RootOrder: 6
  m_LocalEulerAnglesHint: {x: 0, y: 0, z: 0}
--- !u!1 &1234717288
GameObject:
  m_ObjectHideFlags: 0
  m_CorrespondingSourceObject: {fileID: 0}
  m_PrefabInstance: {fileID: 0}
  m_PrefabAsset: {fileID: 0}
  serializedVersion: 6
  m_Component:
  - component: {fileID: 1234717290}
  - component: {fileID: 1234717289}
  m_Layer: 0
  m_Name: Post-process Volume
  m_TagString: Untagged
  m_Icon: {fileID: 0}
  m_NavMeshLayer: 0
  m_StaticEditorFlags: 0
  m_IsActive: 1
--- !u!114 &1234717289
MonoBehaviour:
  m_ObjectHideFlags: 0
  m_CorrespondingSourceObject: {fileID: 0}
  m_PrefabInstance: {fileID: 0}
  m_PrefabAsset: {fileID: 0}
  m_GameObject: {fileID: 1234717288}
  m_Enabled: 1
  m_EditorHideFlags: 0
  m_Script: {fileID: 11500000, guid: 172515602e62fb746b5d573b38a5fe58, type: 3}
  m_Name: 
  m_EditorClassIdentifier: 
  isGlobal: 1
  priority: 0
  blendDistance: 0
  weight: 1
  sharedProfile: {fileID: 11400000, guid: 0230c16914d440e1a618a46939492a21, type: 2}
--- !u!4 &1234717290
Transform:
  m_ObjectHideFlags: 0
  m_CorrespondingSourceObject: {fileID: 0}
  m_PrefabInstance: {fileID: 0}
  m_PrefabAsset: {fileID: 0}
  m_GameObject: {fileID: 1234717288}
  m_LocalRotation: {x: 0, y: 0, z: 0, w: 1}
  m_LocalPosition: {x: 0, y: 0, z: 0}
  m_LocalScale: {x: 1, y: 1, z: 1}
  m_Children: []
  m_Father: {fileID: 0}
  m_RootOrder: 5
  m_LocalEulerAnglesHint: {x: 0, y: 0, z: 0}
--- !u!1001 &1240168775
PrefabInstance:
  m_ObjectHideFlags: 0
  serializedVersion: 2
  m_Modification:
    m_TransformParent: {fileID: 0}
    m_Modifications:
    - target: {fileID: 100004, guid: a00cab87bbf7429fabc35b3a4fcd9df1, type: 3}
      propertyPath: m_IsActive
      value: 1
      objectReference: {fileID: 0}
    - target: {fileID: 400004, guid: a00cab87bbf7429fabc35b3a4fcd9df1, type: 3}
      propertyPath: m_RootOrder
      value: 1
      objectReference: {fileID: 0}
    - target: {fileID: 400004, guid: a00cab87bbf7429fabc35b3a4fcd9df1, type: 3}
      propertyPath: m_LocalPosition.x
      value: 0
      objectReference: {fileID: 0}
    - target: {fileID: 400004, guid: a00cab87bbf7429fabc35b3a4fcd9df1, type: 3}
      propertyPath: m_LocalPosition.y
      value: 0
      objectReference: {fileID: 0}
    - target: {fileID: 400004, guid: a00cab87bbf7429fabc35b3a4fcd9df1, type: 3}
      propertyPath: m_LocalPosition.z
      value: 0
      objectReference: {fileID: 0}
    - target: {fileID: 400004, guid: a00cab87bbf7429fabc35b3a4fcd9df1, type: 3}
      propertyPath: m_LocalRotation.w
      value: 1
      objectReference: {fileID: 0}
    - target: {fileID: 400004, guid: a00cab87bbf7429fabc35b3a4fcd9df1, type: 3}
      propertyPath: m_LocalRotation.x
      value: 0
      objectReference: {fileID: 0}
    - target: {fileID: 400004, guid: a00cab87bbf7429fabc35b3a4fcd9df1, type: 3}
      propertyPath: m_LocalRotation.y
      value: 0
      objectReference: {fileID: 0}
    - target: {fileID: 400004, guid: a00cab87bbf7429fabc35b3a4fcd9df1, type: 3}
      propertyPath: m_LocalRotation.z
      value: 0
      objectReference: {fileID: 0}
    m_RemovedComponents: []
  m_SourcePrefab: {fileID: 100100000, guid: a00cab87bbf7429fabc35b3a4fcd9df1, type: 3}
--- !u!1001 &1398880977
PrefabInstance:
  m_ObjectHideFlags: 0
  serializedVersion: 2
  m_Modification:
    m_TransformParent: {fileID: 0}
    m_Modifications:
    - target: {fileID: 100004, guid: 7ce5c6b2eb6a48f8b7b5a4e539158928, type: 3}
      propertyPath: m_IsActive
      value: 1
      objectReference: {fileID: 0}
    - target: {fileID: 400004, guid: 7ce5c6b2eb6a48f8b7b5a4e539158928, type: 3}
      propertyPath: m_RootOrder
      value: 2
      objectReference: {fileID: 0}
    - target: {fileID: 400004, guid: 7ce5c6b2eb6a48f8b7b5a4e539158928, type: 3}
      propertyPath: m_LocalPosition.x
      value: 0
      objectReference: {fileID: 0}
    - target: {fileID: 400004, guid: 7ce5c6b2eb6a48f8b7b5a4e539158928, type: 3}
      propertyPath: m_LocalPosition.y
      value: 0
      objectReference: {fileID: 0}
    - target: {fileID: 400004, guid: 7ce5c6b2eb6a48f8b7b5a4e539158928, type: 3}
      propertyPath: m_LocalPosition.z
      value: 0
      objectReference: {fileID: 0}
    - target: {fileID: 400004, guid: 7ce5c6b2eb6a48f8b7b5a4e539158928, type: 3}
      propertyPath: m_LocalRotation.w
      value: 1
      objectReference: {fileID: 0}
    - target: {fileID: 400004, guid: 7ce5c6b2eb6a48f8b7b5a4e539158928, type: 3}
      propertyPath: m_LocalRotation.x
      value: 0
      objectReference: {fileID: 0}
    - target: {fileID: 400004, guid: 7ce5c6b2eb6a48f8b7b5a4e539158928, type: 3}
      propertyPath: m_LocalRotation.y
      value: 0
      objectReference: {fileID: 0}
    - target: {fileID: 400004, guid: 7ce5c6b2eb6a48f8b7b5a4e539158928, type: 3}
      propertyPath: m_LocalRotation.z
      value: 0
      objectReference: {fileID: 0}
    m_RemovedComponents: []
  m_SourcePrefab: {fileID: 100100000, guid: 7ce5c6b2eb6a48f8b7b5a4e539158928, type: 3}
--- !u!1001 &1549791884
PrefabInstance:
  m_ObjectHideFlags: 0
  serializedVersion: 2
  m_Modification:
    m_TransformParent: {fileID: 0}
    m_Modifications:
    - target: {fileID: 1036898590985476, guid: 471a158492514c7792942f58e781f820, type: 3}
      propertyPath: m_IsActive
      value: 1
      objectReference: {fileID: 0}
    - target: {fileID: 1182898145782808, guid: 471a158492514c7792942f58e781f820, type: 3}
      propertyPath: m_IsActive
      value: 1
      objectReference: {fileID: 0}
    - target: {fileID: 1213433412771150, guid: 471a158492514c7792942f58e781f820, type: 3}
      propertyPath: m_IsActive
      value: 1
      objectReference: {fileID: 0}
    - target: {fileID: 1328511268821168, guid: 471a158492514c7792942f58e781f820, type: 3}
      propertyPath: m_IsActive
      value: 1
      objectReference: {fileID: 0}
    - target: {fileID: 1562310570118954, guid: 471a158492514c7792942f58e781f820, type: 3}
      propertyPath: m_IsActive
      value: 1
      objectReference: {fileID: 0}
    - target: {fileID: 1638208662616334, guid: 471a158492514c7792942f58e781f820, type: 3}
      propertyPath: m_IsActive
      value: 1
      objectReference: {fileID: 0}
    - target: {fileID: 1934339653263988, guid: 471a158492514c7792942f58e781f820, type: 3}
      propertyPath: m_IsActive
      value: 1
      objectReference: {fileID: 0}
    - target: {fileID: 4090084531982950, guid: 471a158492514c7792942f58e781f820, type: 3}
      propertyPath: m_RootOrder
      value: 4
      objectReference: {fileID: 0}
    - target: {fileID: 4090084531982950, guid: 471a158492514c7792942f58e781f820, type: 3}
      propertyPath: m_LocalPosition.x
      value: 0
      objectReference: {fileID: 0}
    - target: {fileID: 4090084531982950, guid: 471a158492514c7792942f58e781f820, type: 3}
      propertyPath: m_LocalPosition.y
      value: 0
      objectReference: {fileID: 0}
    - target: {fileID: 4090084531982950, guid: 471a158492514c7792942f58e781f820, type: 3}
      propertyPath: m_LocalPosition.z
      value: 0
      objectReference: {fileID: 0}
    - target: {fileID: 4090084531982950, guid: 471a158492514c7792942f58e781f820, type: 3}
      propertyPath: m_LocalRotation.w
      value: 0
      objectReference: {fileID: 0}
    - target: {fileID: 4090084531982950, guid: 471a158492514c7792942f58e781f820, type: 3}
      propertyPath: m_LocalRotation.x
      value: 0
      objectReference: {fileID: 0}
    - target: {fileID: 4090084531982950, guid: 471a158492514c7792942f58e781f820, type: 3}
      propertyPath: m_LocalRotation.y
      value: 1
      objectReference: {fileID: 0}
    - target: {fileID: 4090084531982950, guid: 471a158492514c7792942f58e781f820, type: 3}
      propertyPath: m_LocalRotation.z
      value: 0
      objectReference: {fileID: 0}
    - target: {fileID: 23043426039841604, guid: 471a158492514c7792942f58e781f820,
        type: 3}
      propertyPath: m_Materials.Array.data[0]
      value: 
      objectReference: {fileID: 2100000, guid: 19293121f2324ebba167a9550ae9030d, type: 2}
    - target: {fileID: 23410800661236208, guid: 471a158492514c7792942f58e781f820,
        type: 3}
      propertyPath: m_Materials.Array.data[0]
      value: 
      objectReference: {fileID: 2100000, guid: 7975800bdc994e1fa80ede608793cc5b, type: 2}
    - target: {fileID: 23424531182768784, guid: 471a158492514c7792942f58e781f820,
        type: 3}
      propertyPath: m_Materials.Array.data[0]
      value: 
      objectReference: {fileID: 2100000, guid: 7975800bdc994e1fa80ede608793cc5b, type: 2}
    m_RemovedComponents: []
  m_SourcePrefab: {fileID: 100100000, guid: 471a158492514c7792942f58e781f820, type: 3}
--- !u!115 &1710004638
MonoScript:
  m_ObjectHideFlags: 0
  m_CorrespondingSourceObject: {fileID: 0}
  m_PrefabInstance: {fileID: 0}
  m_PrefabAsset: {fileID: 0}
  m_Name: 
  serializedVersion: 5
  m_Script: 
  m_DefaultReferences: {}
  m_Icon: {fileID: 0}
  m_ExecutionOrder: 0
  m_ClassName: SceneObjectIDMapSceneAsset
  m_Namespace: UnityEngine.Rendering.HighDefinition
--- !u!1 &1750415539
GameObject:
  m_ObjectHideFlags: 19
  m_CorrespondingSourceObject: {fileID: 0}
  m_PrefabInstance: {fileID: 0}
  m_PrefabAsset: {fileID: 0}
  serializedVersion: 6
  m_Component:
  - component: {fileID: 1750415541}
  - component: {fileID: 1750415540}
  m_Layer: 0
  m_Name: SceneIDMap
  m_TagString: Untagged
  m_Icon: {fileID: 0}
  m_NavMeshLayer: 0
  m_StaticEditorFlags: 0
  m_IsActive: 1
--- !u!114 &1750415540
MonoBehaviour:
  m_ObjectHideFlags: 19
  m_CorrespondingSourceObject: {fileID: 0}
  m_PrefabInstance: {fileID: 0}
  m_PrefabAsset: {fileID: 0}
  m_GameObject: {fileID: 1750415539}
  m_Enabled: 1
  m_EditorHideFlags: 0
  m_Script: {fileID: 1710004638}
  m_Name: 
  m_EditorClassIdentifier: 
  m_Entries:
  - id: 1
    category: 0
    gameObject: {fileID: 769384943}
--- !u!4 &1750415541
Transform:
  m_ObjectHideFlags: 19
  m_CorrespondingSourceObject: {fileID: 0}
  m_PrefabInstance: {fileID: 0}
  m_PrefabAsset: {fileID: 0}
  m_GameObject: {fileID: 1750415539}
  m_LocalRotation: {x: 0, y: 0, z: 0, w: 1}
  m_LocalPosition: {x: 0, y: 0, z: 0}
  m_LocalScale: {x: 1, y: 1, z: 1}
  m_Children: []
  m_Father: {fileID: 0}
  m_RootOrder: 7
  m_LocalEulerAnglesHint: {x: 0, y: 0, z: 0}
--- !u!1001 &2093646455
PrefabInstance:
  m_ObjectHideFlags: 0
  serializedVersion: 2
  m_Modification:
    m_TransformParent: {fileID: 0}
    m_Modifications:
    - target: {fileID: 100000, guid: 5a4b646cfd6947988293f03071a45bdd, type: 3}
      propertyPath: m_IsActive
      value: 1
      objectReference: {fileID: 0}
    - target: {fileID: 100004, guid: 5a4b646cfd6947988293f03071a45bdd, type: 3}
      propertyPath: m_IsActive
      value: 1
      objectReference: {fileID: 0}
    - target: {fileID: 400004, guid: 5a4b646cfd6947988293f03071a45bdd, type: 3}
      propertyPath: m_RootOrder
      value: 3
      objectReference: {fileID: 0}
    - target: {fileID: 400004, guid: 5a4b646cfd6947988293f03071a45bdd, type: 3}
      propertyPath: m_LocalPosition.x
      value: 0
      objectReference: {fileID: 0}
    - target: {fileID: 400004, guid: 5a4b646cfd6947988293f03071a45bdd, type: 3}
      propertyPath: m_LocalPosition.y
      value: 0
      objectReference: {fileID: 0}
    - target: {fileID: 400004, guid: 5a4b646cfd6947988293f03071a45bdd, type: 3}
      propertyPath: m_LocalPosition.z
      value: 0
      objectReference: {fileID: 0}
    - target: {fileID: 400004, guid: 5a4b646cfd6947988293f03071a45bdd, type: 3}
      propertyPath: m_LocalRotation.w
      value: 1
      objectReference: {fileID: 0}
    - target: {fileID: 400004, guid: 5a4b646cfd6947988293f03071a45bdd, type: 3}
      propertyPath: m_LocalRotation.x
      value: 0
      objectReference: {fileID: 0}
    - target: {fileID: 400004, guid: 5a4b646cfd6947988293f03071a45bdd, type: 3}
      propertyPath: m_LocalRotation.y
      value: 0
      objectReference: {fileID: 0}
    - target: {fileID: 400004, guid: 5a4b646cfd6947988293f03071a45bdd, type: 3}
      propertyPath: m_LocalRotation.z
      value: 0
      objectReference: {fileID: 0}
    - target: {fileID: 10800000, guid: 5a4b646cfd6947988293f03071a45bdd, type: 3}
      propertyPath: m_Type
      value: 1
      objectReference: {fileID: 0}
    - target: {fileID: 10800000, guid: 5a4b646cfd6947988293f03071a45bdd, type: 3}
      propertyPath: m_Color.b
      value: 1
      objectReference: {fileID: 0}
    - target: {fileID: 10800000, guid: 5a4b646cfd6947988293f03071a45bdd, type: 3}
      propertyPath: m_Color.g
      value: 1
      objectReference: {fileID: 0}
    - target: {fileID: 10800000, guid: 5a4b646cfd6947988293f03071a45bdd, type: 3}
      propertyPath: m_Color.r
      value: 1
      objectReference: {fileID: 0}
    - target: {fileID: 10800000, guid: 5a4b646cfd6947988293f03071a45bdd, type: 3}
      propertyPath: m_Intensity
      value: 1
      objectReference: {fileID: 0}
    - target: {fileID: 10800000, guid: 5a4b646cfd6947988293f03071a45bdd, type: 3}
      propertyPath: m_AreaSize.x
      value: 0.5
      objectReference: {fileID: 0}
    - target: {fileID: 10800000, guid: 5a4b646cfd6947988293f03071a45bdd, type: 3}
      propertyPath: m_AreaSize.y
      value: 0.5
      objectReference: {fileID: 0}
    - target: {fileID: 10800000, guid: 5a4b646cfd6947988293f03071a45bdd, type: 3}
      propertyPath: m_Lightmapping
      value: 1
      objectReference: {fileID: 0}
    - target: {fileID: 10800000, guid: 5a4b646cfd6947988293f03071a45bdd, type: 3}
      propertyPath: m_BounceIntensity
      value: 2
      objectReference: {fileID: 0}
    - target: {fileID: 10800000, guid: 5a4b646cfd6947988293f03071a45bdd, type: 3}
      propertyPath: m_Shadows.m_Strength
      value: 1
      objectReference: {fileID: 0}
    - target: {fileID: 10800000, guid: 5a4b646cfd6947988293f03071a45bdd, type: 3}
      propertyPath: m_LightShadowCasterMode
      value: 2
      objectReference: {fileID: 0}
    - target: {fileID: 10800000, guid: 5a4b646cfd6947988293f03071a45bdd, type: 3}
      propertyPath: m_BoundingSphereOverride.w
      value: 9.1858e-41
      objectReference: {fileID: 0}
    - target: {fileID: 10800000, guid: 5a4b646cfd6947988293f03071a45bdd, type: 3}
      propertyPath: m_BoundingSphereOverride.x
      value: 9.1858e-41
      objectReference: {fileID: 0}
    - target: {fileID: 10800000, guid: 5a4b646cfd6947988293f03071a45bdd, type: 3}
      propertyPath: m_BoundingSphereOverride.y
      value: 4.959117e-39
      objectReference: {fileID: 0}
    - target: {fileID: 10800000, guid: 5a4b646cfd6947988293f03071a45bdd, type: 3}
      propertyPath: m_BoundingSphereOverride.z
      value: 2.0499852e-19
      objectReference: {fileID: 0}
    m_RemovedComponents: []
  m_SourcePrefab: {fileID: 100100000, guid: 5a4b646cfd6947988293f03071a45bdd, type: 3}
--- !u!1 &2093646456 stripped
GameObject:
  m_CorrespondingSourceObject: {fileID: 100000, guid: 5a4b646cfd6947988293f03071a45bdd,
    type: 3}
  m_PrefabInstance: {fileID: 2093646455}
  m_PrefabAsset: {fileID: 0}
--- !u!114 &2093646457
MonoBehaviour:
  m_ObjectHideFlags: 0
  m_CorrespondingSourceObject: {fileID: 0}
  m_PrefabInstance: {fileID: 0}
  m_PrefabAsset: {fileID: 0}
  m_GameObject: {fileID: 2093646456}
  m_Enabled: 1
  m_EditorHideFlags: 0
  m_Script: {fileID: 11500000, guid: 7a68c43fe1f2a47cfa234b5eeaa98012, type: 3}
  m_Name: 
  m_EditorClassIdentifier: 
  m_Version: 10
  m_ObsoleteShadowResolutionTier: 1
  m_ObsoleteUseShadowQualitySettings: 0
  m_ObsoleteCustomShadowResolution: 512
  m_ObsoleteContactShadows: 0
  m_PointlightHDType: 0
  m_SpotLightShape: 0
  m_AreaLightShape: 0
  m_Intensity: 1
  m_EnableSpotReflector: 0
  m_LuxAtDistance: 1
  m_InnerSpotPercent: 0
  m_LightDimmer: 1
  m_VolumetricDimmer: 1
  m_LightUnit: 2
  m_FadeDistance: 10000
  m_AffectDiffuse: 1
  m_AffectSpecular: 1
  m_NonLightmappedOnly: 0
  m_ShapeWidth: 0.5
  m_ShapeHeight: 0.5
  m_AspectRatio: 1
  m_ShapeRadius: 0.025
  m_SoftnessScale: 1
  m_UseCustomSpotLightShadowCone: 0
  m_CustomSpotLightShadowCone: 30
  m_MaxSmoothness: 0.99
  m_ApplyRangeAttenuation: 1
  m_DisplayAreaLightEmissiveMesh: 0
  m_AreaLightCookie: {fileID: 0}
  m_AreaLightShadowCone: 120
  m_UseScreenSpaceShadows: 0
  m_InteractsWithSky: 1
  m_AngularDiameter: 0.5
  m_FlareSize: 2
  m_FlareTint: {r: 1, g: 1, b: 1, a: 1}
  m_FlareFalloff: 4
  m_SurfaceTexture: {fileID: 0}
  m_SurfaceTint: {r: 1, g: 1, b: 1, a: 1}
  m_Distance: 1.5e+11
  m_UseRayTracedShadows: 0
  m_NumRayTracingSamples: 4
  m_FilterTracedShadow: 1
  m_FilterSizeTraced: 16
  m_SunLightConeAngle: 0.5
  m_LightShadowRadius: 0.5
  m_SemiTransparentShadow: 0
  m_ColorShadow: 1
  m_EvsmExponent: 15
  m_EvsmLightLeakBias: 0
  m_EvsmVarianceBias: 0.00001
  m_EvsmBlurPasses: 0
  m_LightlayersMask: 1
  m_LinkShadowLayers: 1
  m_ShadowNearPlane: 0.1
  m_BlockerSampleCount: 24
  m_FilterSampleCount: 16
  m_MinFilterSize: 0.1
  m_KernelSize: 5
  m_LightAngle: 1
  m_MaxDepthBias: 0.001
  m_ShadowResolution:
    m_Override: 512
    m_UseOverride: 1
    m_Level: 0
  m_ShadowDimmer: 1
  m_VolumetricShadowDimmer: 1
  m_ShadowFadeDistance: 10000
  m_UseContactShadow:
    m_Override: 0
    m_UseOverride: 1
    m_Level: 0
  m_RayTracedContactShadow: 0
  m_ShadowTint: {r: 0, g: 0, b: 0, a: 1}
  m_PenumbraTint: 0
  m_NormalBias: 0.75
  m_SlopeBias: 0.5
  m_ShadowUpdateMode: 0
  m_BarnDoorAngle: 90
  m_BarnDoorLength: 0.05
  m_ShadowCascadeRatios:
  - 0.05
  - 0.2
  - 0.3
  m_ShadowCascadeBorders:
  - 0.2
  - 0.2
  - 0.2
  - 0.2
  m_ShadowAlgorithm: 0
  m_ShadowVariant: 0
  m_ShadowPrecision: 0
  useOldInspector: 0
  useVolumetric: 1
  featuresFoldout: 1
  showAdditionalSettings: 0
  m_AreaLightEmissiveMeshShadowCastingMode: 0
  m_AreaLightEmissiveMeshMotionVectorGenerationMode: 0
  m_AreaLightEmissiveMeshLayer: -1
